31918 544742 470
831967 209987 509
708790 100484 509
813675 656221 504
274262 840923 525
367958 271906 441
514131 300818 470
634595 941866 525
394804 381241 436
775408 409918 509
21596 171397 383
316903 859536 525
489298 428696 444
69344 263884 443
426380 121006 449
359771 287615 441
198271 98486 383
87554 190535 383
639856 660592 429
747578 85227 509
818528 705425 468
725077 126770 509
613280 694261 509
513084 516227 395
392695 678450 509
28766 825144 509
200274 241872 443
883053 207288 525
558899 990357 525
150189 923602 525
789550 227361 509
150653 812838 509
365735 804903 509
521521 351976 470
75639 14844 340
759586 957513 525
575765 708153 509
213119 998207 525
507061 974852 525
575146 651601 509
83808 192587 383
657493 354838 509
98438 846991 525
414198 508088 444
624805 717098 509
590698 847911 525
870427 42164 525
949224 150718 525
479664 452522 444
819077 301716 509
914323 491319 525
552911 667526 509
368585 258198 441
328994 576035 470
516162 781603 509
957002 902965 507
390655 509458 449
578522 700332 509
9815 637683 509
676765 905349 525
176902 722234 509
836584 358101 509
807550 264953 509
966902 421427 525
644218 454056 509
6126 314559 443
99684 897346 525
574210 335113 470
605067 987450 525
693649 545859 509
987746 508546 525
404791 882100 525
445229 306731 449
746647 106710 509
725525 670747 504
779207 162142 509
210373 134237 383
182920 447198 449
663732 501684 509
165535 658685 509
740304 600735 509
527276 766981 509
179422 472702 449
85376 73177 351
643960 793150 504
826653 672029 504
114344 698562 509
489882 179453 449
955304 242168 525
506509 532104 470
397301 979358 525
586229 693717 509
943067 686712 525
71934 127137 354
158043 737612 509
966582 296887 525
751472 883635 525
422921 495147 444
116643 444000 449
316660 518096 470
951962 310333 525
858656 284247 525
286890 812296 509
377882 572634 470
577471 209964 470
560978 565297 421
259278 273622 407
49747 597314 470
209702 133118 383
240348 86988 443
758729 442822 509
117750 665909 509
155066 879264 525
573526 528441 452
300490 537242 470
66101 580810 470
212135 262711 443
66085 929481 525
766137 198330 509
144898 524922 470
200526 684455 509
434184 350446 449
614174 232619 470
705279 450157 509
751394 794682 468
918778 993970 507
414852 523149 470
840633 772720 525
506935 527597 470
172957 364665 443
952501 436420 525
501227 432933 444
375126 520007 470
374090 844228 525
216173 536629 470
618251 853311 525
464774 655739 509
141418 656784 509
476886 115413 449
271017 44237 443
153840 646929 509
145688 562538 470
299801 729185 509
650443 659167 429
84726 692600 509
24982 883301 525
229541 852597 525
161671 247832 443
77061 146569 375
775423 214375 509
629234 861888 525
941659 920481 507
74243 230194 386
948937 427221 525
636217 754029 504
790969 398829 509
42326 287250 443
302605 302881 340
235398 570648 470
860571 545903 525
799275 512209 509
247118 596678 470
531967 371285 470
447344 483960 444
366390 9453 443
157966 49980 383
841515 789993 525
785884 184156 509
495423 370179 449
944933 906307 507
5207 958329 525
339342 303520 384
360615 384720 423
352630 855137 525
331734 110174 443
867316 435640 525
216212 358877 443
984466 588547 525
807843 959596 525
255937 67061 443
46746 675112 509
344236 544662 470
383620 59269 443
619456 734823 509
988149 251061 525
956078 451132 525
351558 2076 443
378755 803021 509
111092 165324 383
853378 363672 525
429605 50521 449
914809 926204 445
251442 215472 443
984634 995549 427
772814 371338 509
301437 817472 509
150871 589826 470
696952 990446 525
262670 217161 443
609183 941413 525
786479 481480 509
830522 679480 504
274732 792524 509
814998 728459 468
171573 953709 525
927330 656536 525
20395 758605 509
66540 183501 383
554019 957808 525
902173 80852 525
85746 331036 443
514537 527511 439
539 620759 470
992644 901148 507
620971 898880 525
692734 117874 509
762635 975980 525
579792 567468 390
953149 790981 525
959617 581529 525
292439 307986 371
399212 315239 441
459470 508292 444
747719 645299 504
702942 726367 504
105119 763162 509
975982 12899 525
863570 859585 357
613960 156443 470
296198 89 443
